161250 Data Analysis - Getting Started With R
…
You can also load data from the web using a URL. For example,

Code

read_csv("https://www.massey.ac.nz/~anhsmith/data/rangitikei.csv")

Rows: 33 Columns: 10
── Column specification ────────────────────────────────────────────────────────
Delimiter: ","
dbl (10): id, loc, time, w.e, cl, wind, temp, river, people, vehicle

ℹ Use `spec()` to retrieve the full column specification for this data.
ℹ Specify the column types or set `show_col_types = FALSE` to quiet this message.

# A tibble: 33 × 10
      id   loc  time   w.e    cl  wind  temp river people vehicle
   <dbl> <dbl> <dbl> <dbl> <dbl> <dbl> <dbl> <dbl>  <dbl>   <dbl>
 1     1     1     2     1     1     2     2     1     37      15
 2     2     1     1     1     1     2     1     2     23       6
 3     3     1     2     1     1     2     2     3     87      31
 4     4     2     2     1     1     2     1     1     86      27
 5     5     2     1     1     1     2     2     2     19       2
 6     6     2     2     1     2     1     3     3    136      23
 7     7     1     2     2     2     2     2     3     14       8
 8     8     1     2     1     2     2     2     3     67      26
 9     9     1     1     2     1     3     1     2      4       3
10    10     2     2     1     2     2     2     3    127      45
# ℹ 23 more rows
…
There are many more commands such as the transmute function which conserves the only the needed columns. Try

Code

my.data |> 
  group_by(wind, w.e) |> 
  transmute(total=n(), 
            avg=mean(people))

# A tibble: 33 × 4
# Groups:   wind, w.e [6]
    wind   w.e total   avg
   <int> <int> <int> <dbl>
 1     2     1    18  72.1
 2     2     1    18  72.1
 3     2     1    18  72.1
 4     2     1    18  72.1
 5     2     1    18  72.1
 6     1     1     4 189  
 7     2     2     8  31.8
 8     2     1    18  72.1
 9     3     2     1   4  
10     2     1    18  72.1
# ℹ 23 more rows
…
Code

my.data <- read_csv(
  "https://www.massey.ac.nz/~anhsmith/data/tv.csv", 
  col_types = "nfcc"
  )

The argument col_types = "nfcc" stands for {numeric, factor, character, character}, to match the order of the columns.

Code

my.data

# A tibble: 46 × 4
   TELETIME SEX   SCHOOL STANDARD
      <dbl> <fct> <chr>  <chr>   
 1     1482 1     1      4       
 2     2018 1     1      4       
 3     1849 1     1      4       
 4      857 1     1      4       
 5     2027 2     1      4       
 6     2368 2     1      4       
 7     1783 2     1      4       
 8     1769 2     1      4       
 9     2534 1     1      3       
10     2366 1     1      3       
# ℹ 36 more rows
…
